# Wavefront OBJ file written 2020-05-18T09:58:07
o sails_normal_0

# points : 177
# faces  : 264
# zones  : 1
#   0  OBJECT  (nFaces: 264)

# <points count="177">
v 1.05475 0.180417 2.66667
v 1.05475 0.180417 7
v 0.915846 0.0368629 7
v 0.915846 0.0368629 2.66667
v 1.194 0.323636 2.66667
v 1.194 0.323636 7
v 1.33543 0.464679 2.66667
v 1.33543 0.464679 7
v 1.48034 0.602147 2.66667
v 1.48034 0.602147 7
v 1.63583 0.740575 2.66667
v 1.63583 0.740575 7
v 1.78321 0.862551 2.66667
v 1.78321 0.862551 7
v 1.94176 0.984034 4.83333
v 1.94176 0.984034 7
v 1.94176 0.984034 2.66667
v 2.10503 1.09907 2.66667
v 2.10503 1.09907 4.83333
v 2.02281 1.04239 4.83333
v 2.02281 1.04239 2.66667
v 2.10503 1.09907 7
v 2.02281 1.04239 7
v 2.27282 1.20746 2.66667
v 2.27282 1.20746 7
v 2.44468 1.30922 2.66667
v 2.44468 1.30922 7
v 2.62024 1.40449 2.66667
v 2.62024 1.40449 7
v 2.79897 1.49366 2.66667
v 2.79897 1.49366 7
v 2.98039 1.57724 2.66667
v 2.98039 1.57724 7
v 3.16408 1.65571 2.66667
v 3.16408 1.65571 7
v 3.3497 1.72947 2.66667
v 3.3497 1.72947 7
v 3.53696 1.79897 2.66667
v 3.53696 1.79897 7
v 3.72558 1.86462 2.66667
v 3.72558 1.86462 7
v 3.9154 1.92689 2.66667
v 3.9154 1.92689 7
v 4.10627 1.98598 2.66667
v 4.10627 1.98598 7
v 4.29804 2.04177 2.66667
v 4.29804 2.04177 7
v 4.49074 2.09428 2.66667
v 4.49074 2.09428 7
v 4.68408 2.14407 2.66667
v 4.68408 2.14407 7
v 4.87808 2.192 2.66667
v 4.87808 2.192 7
v 5.07246 2.23847 2.66667
v 5.07246 2.23847 7
v 5.26705 2.28332 2.66667
v 5.26705 2.28332 7
v 5.46206 2.32646 2.66667
v 5.46206 2.32646 7
v 5.65748 2.36767 2.66667
v 5.65748 2.36767 7
v 5.8534 2.40678 2.66667
v 5.8534 2.40678 7
v 6.0497 2.44378 2.66667
v 6.0497 2.44378 7
v 6.25578 2.48053 2.66667
v 6.25578 2.48053 7
v 6.44328 2.51228 2.66667
v 6.44328 2.51228 7
v 6.64052 2.54383 2.66667
v 6.64052 2.54383 7
v 6.83808 2.57335 2.66667
v 6.83808 2.57335 7
v 7.0359 2.60093 2.66667
v 7.0359 2.60093 7
v 7.2387 2.62762 2.66667
v 7.2387 2.62762 7
v 7.43217 2.65177 2.66667
v 7.43217 2.65177 7
v 7.63069 2.67425 2.66667
v 7.63069 2.67425 7
v 7.82948 2.69329 2.66667
v 7.82948 2.69329 7
v 8.02852 2.71033 2.66667
v 8.02852 2.71033 7
v 8.22734 2.72947 2.66667
v 8.22734 2.72947 7
v 1.05475 0.180417 -1.66667
v 0.915846 0.0368629 -1.66667
v 1.194 0.323636 -1.66667
v 1.33543 0.464679 -1.66667
v 1.48034 0.602147 -1.66667
v 1.63583 0.740575 -1.66667
v 1.78321 0.862551 -1.66667
v 1.94176 0.984034 0.5
v 1.94176 0.984034 -1.66667
v 2.10503 1.09907 -1.66667
v 2.10503 1.09907 0.5
v 2.02281 1.04239 0.5
v 2.02281 1.04239 -1.66667
v 2.27282 1.20746 -1.66667
v 2.44468 1.30922 -1.66667
v 2.62024 1.40449 -1.66667
v 2.79897 1.49366 -1.66667
v 2.98039 1.57724 -1.66667
v 3.16408 1.65571 -1.66667
v 3.3497 1.72947 -1.66667
v 3.53696 1.79897 -1.66667
v 3.72558 1.86462 -1.66667
v 3.9154 1.92689 -1.66667
v 4.10627 1.98598 -1.66667
v 4.29804 2.04177 -1.66667
v 4.49074 2.09428 -1.66667
v 4.68408 2.14407 -1.66667
v 4.87808 2.192 -1.66667
v 5.07246 2.23847 -1.66667
v 5.26705 2.28332 -1.66667
v 5.46206 2.32646 -1.66667
v 5.65748 2.36767 -1.66667
v 5.8534 2.40678 -1.66667
v 6.0497 2.44378 -1.66667
v 6.25578 2.48053 -1.66667
v 6.44328 2.51228 -1.66667
v 6.64052 2.54383 -1.66667
v 6.83808 2.57335 -1.66667
v 7.0359 2.60093 -1.66667
v 7.2387 2.62762 -1.66667
v 7.43217 2.65177 -1.66667
v 7.63069 2.67425 -1.66667
v 7.82948 2.69329 -1.66667
v 8.02852 2.71033 -1.66667
v 8.22734 2.72947 -1.66667
v 1.05475 0.180417 -6
v 0.915846 0.0368629 -6
v 1.194 0.323636 -6
v 1.33543 0.464679 -6
v 1.48034 0.602147 -6
v 1.63583 0.740575 -6
v 1.78321 0.862551 -6
v 1.94176 0.984034 -3.83333
v 1.94176 0.984034 -6
v 2.10503 1.09907 -6
v 2.10503 1.09907 -3.83333
v 2.02281 1.04239 -3.83333
v 2.02281 1.04239 -6
v 2.27282 1.20746 -6
v 2.44468 1.30922 -6
v 2.62024 1.40449 -6
v 2.79897 1.49366 -6
v 2.98039 1.57724 -6
v 3.16408 1.65571 -6
v 3.3497 1.72947 -6
v 3.53696 1.79897 -6
v 3.72558 1.86462 -6
v 3.9154 1.92689 -6
v 4.10627 1.98598 -6
v 4.29804 2.04177 -6
v 4.49074 2.09428 -6
v 4.68408 2.14407 -6
v 4.87808 2.192 -6
v 5.07246 2.23847 -6
v 5.26705 2.28332 -6
v 5.46206 2.32646 -6
v 5.65748 2.36767 -6
v 5.8534 2.40678 -6
v 6.0497 2.44378 -6
v 6.25578 2.48053 -6
v 6.44328 2.51228 -6
v 6.64052 2.54383 -6
v 6.83808 2.57335 -6
v 7.0359 2.60093 -6
v 7.2387 2.62762 -6
v 7.43217 2.65177 -6
v 7.63069 2.67425 -6
v 7.82948 2.69329 -6
v 8.02852 2.71033 -6
v 8.22734 2.72947 -6
# </points>

# <faces count="264">
g OBJECT
f 1 2 3
f 1 3 4
f 5 6 2
f 5 2 1
f 7 8 6
f 7 6 5
f 9 10 8
f 9 8 7
f 11 12 10
f 11 10 9
f 13 14 12
f 13 12 11
f 15 16 14
f 13 17 15
f 14 13 15
f 18 19 20
f 18 20 21
f 19 22 23
f 19 23 20
f 20 23 16
f 20 16 15
f 21 20 15
f 21 15 17
f 19 18 24
f 25 22 19
f 24 25 19
f 26 27 25
f 26 25 24
f 28 29 27
f 28 27 26
f 30 31 29
f 30 29 28
f 32 33 31
f 32 31 30
f 34 35 33
f 34 33 32
f 36 37 35
f 36 35 34
f 38 39 37
f 38 37 36
f 40 41 39
f 40 39 38
f 42 43 41
f 42 41 40
f 44 45 43
f 44 43 42
f 46 47 45
f 46 45 44
f 48 49 47
f 48 47 46
f 50 51 49
f 50 49 48
f 52 53 51
f 52 51 50
f 54 55 53
f 54 53 52
f 56 57 55
f 56 55 54
f 58 59 57
f 58 57 56
f 60 61 59
f 60 59 58
f 62 63 61
f 62 61 60
f 64 65 63
f 64 63 62
f 66 67 65
f 66 65 64
f 68 69 67
f 68 67 66
f 70 71 69
f 70 69 68
f 72 73 71
f 72 71 70
f 74 75 73
f 74 73 72
f 76 77 75
f 76 75 74
f 78 79 77
f 78 77 76
f 80 81 79
f 80 79 78
f 82 83 81
f 82 81 80
f 84 85 83
f 84 83 82
f 86 87 85
f 86 85 84
f 88 1 4
f 88 4 89
f 90 5 1
f 90 1 88
f 91 7 5
f 91 5 90
f 92 9 7
f 92 7 91
f 93 11 9
f 93 9 92
f 94 13 11
f 94 11 93
f 95 17 13
f 94 96 95
f 13 94 95
f 97 98 99
f 97 99 100
f 98 18 21
f 98 21 99
f 99 21 17
f 99 17 95
f 100 99 95
f 100 95 96
f 98 97 101
f 24 18 98
f 101 24 98
f 102 26 24
f 102 24 101
f 103 28 26
f 103 26 102
f 104 30 28
f 104 28 103
f 105 32 30
f 105 30 104
f 106 34 32
f 106 32 105
f 107 36 34
f 107 34 106
f 108 38 36
f 108 36 107
f 109 40 38
f 109 38 108
f 110 42 40
f 110 40 109
f 111 44 42
f 111 42 110
f 112 46 44
f 112 44 111
f 113 48 46
f 113 46 112
f 114 50 48
f 114 48 113
f 115 52 50
f 115 50 114
f 116 54 52
f 116 52 115
f 117 56 54
f 117 54 116
f 118 58 56
f 118 56 117
f 119 60 58
f 119 58 118
f 120 62 60
f 120 60 119
f 121 64 62
f 121 62 120
f 122 66 64
f 122 64 121
f 123 68 66
f 123 66 122
f 124 70 68
f 124 68 123
f 125 72 70
f 125 70 124
f 126 74 72
f 126 72 125
f 127 76 74
f 127 74 126
f 128 78 76
f 128 76 127
f 129 80 78
f 129 78 128
f 130 82 80
f 130 80 129
f 131 84 82
f 131 82 130
f 132 86 84
f 132 84 131
f 133 88 89
f 133 89 134
f 135 90 88
f 135 88 133
f 136 91 90
f 136 90 135
f 137 92 91
f 137 91 136
f 138 93 92
f 138 92 137
f 139 94 93
f 139 93 138
f 140 96 94
f 139 141 140
f 94 139 140
f 142 143 144
f 142 144 145
f 143 97 100
f 143 100 144
f 144 100 96
f 144 96 140
f 145 144 140
f 145 140 141
f 143 142 146
f 101 97 143
f 146 101 143
f 147 102 101
f 147 101 146
f 148 103 102
f 148 102 147
f 149 104 103
f 149 103 148
f 150 105 104
f 150 104 149
f 151 106 105
f 151 105 150
f 152 107 106
f 152 106 151
f 153 108 107
f 153 107 152
f 154 109 108
f 154 108 153
f 155 110 109
f 155 109 154
f 156 111 110
f 156 110 155
f 157 112 111
f 157 111 156
f 158 113 112
f 158 112 157
f 159 114 113
f 159 113 158
f 160 115 114
f 160 114 159
f 161 116 115
f 161 115 160
f 162 117 116
f 162 116 161
f 163 118 117
f 163 117 162
f 164 119 118
f 164 118 163
f 165 120 119
f 165 119 164
f 166 121 120
f 166 120 165
f 167 122 121
f 167 121 166
f 168 123 122
f 168 122 167
f 169 124 123
f 169 123 168
f 170 125 124
f 170 124 169
f 171 126 125
f 171 125 170
f 172 127 126
f 172 126 171
f 173 128 127
f 173 127 172
f 174 129 128
f 174 128 173
f 175 130 129
f 175 129 174
f 176 131 130
f 176 130 175
f 177 132 131
f 177 131 176
# </faces>
