# Wavefront OBJ file written 2020-05-18T09:58:07
o sails_1

# points : 308
# faces  : 508
# zones  : 1
#   0  OBJECT  (nFaces: 508)

# <points count="308">
v -4.29526 0.319188 -2.75
v -4.29526 0.319188 -4.375
v -4.28804 0.247362 -4.375
v -4.28804 0.247362 -2.75
v -4.29526 0.319188 -6
v -4.28804 0.247362 -6
v -4.27733 0.176377 -6
v -4.27733 0.176377 -4.375
v -4.27733 0.176377 -2.75
v -4.29557 0.463052 -2.75
v -4.29557 0.463052 -4.375
v -4.29807 0.391189 -4.375
v -4.29807 0.391189 -2.75
v -4.29557 0.463052 -6
v -4.29807 0.391189 -6
v -4.27142 0.604623 -2.75
v -4.27142 0.604623 -4.375
v -4.28681 0.534429 -4.375
v -4.28681 0.534429 -2.75
v -4.27142 0.604623 -6
v -4.28681 0.534429 -6
v -4.22257 0.739882 -2.75
v -4.22257 0.739882 -4.375
v -4.24982 0.673261 -4.375
v -4.24982 0.673261 -2.75
v -4.22257 0.739882 -6
v -4.24982 0.673261 -6
v -4.15315 0.865769 -2.75
v -4.15315 0.865769 -4.375
v -4.19023 0.804056 -4.375
v -4.19023 0.804056 -2.75
v -4.15315 0.865769 -6
v -4.19023 0.804056 -6
v -4.06717 0.981145 -2.75
v -4.06717 0.981145 -4.375
v -4.11194 0.924763 -4.375
v -4.11194 0.924763 -2.75
v -4.06717 0.981145 -6
v -4.11194 0.924763 -6
v -3.9692 1.0865 -2.75
v -3.9692 1.0865 -4.375
v -4.01941 1.03502 -4.375
v -4.01941 1.03502 -2.75
v -3.9692 1.0865 -6
v -4.01941 1.03502 -6
v -3.86285 1.18342 -2.75
v -3.86285 1.18342 -4.375
v -3.91693 1.13585 -4.375
v -3.91693 1.13585 -2.75
v -3.86285 1.18342 -6
v -3.91693 1.13585 -6
v -3.75082 1.27393 -2.75
v -3.75082 1.27393 -6
v -3.63559 1.35999 -2.75
v -3.63559 1.35999 -6
v -3.51778 1.44266 -2.75
v -3.51778 1.44266 -6
v -3.39729 1.5214 -2.75
v -3.39729 1.5214 -6
v -3.27413 1.59589 -2.75
v -3.27413 1.59589 -6
v -3.14874 1.66659 -2.75
v -3.14874 1.66659 -6
v -3.02165 1.73411 -2.75
v -3.02165 1.73411 -6
v -2.89312 1.79889 -2.75
v -2.89312 1.79889 -6
v -2.76697 1.85951 -2.75
v -2.76697 1.85951 -6
v -2.63258 1.92131 -2.75
v -2.63258 1.92131 -6
v -2.50089 1.9794 -2.75
v -2.50089 1.9794 -6
v -2.36289 2.03791 -2.75
v -2.36289 2.03791 -6
v -2.23505 2.08974 -2.75
v -2.23505 2.08974 -6
v -2.10065 2.14131 -2.75
v -2.10065 2.14131 -6
v -1.9653 2.19036 -2.75
v -1.9653 2.19036 -6
v -1.82942 2.23785 -2.75
v -1.82942 2.23785 -6
v -1.69858 2.28293 -2.75
v -1.69858 2.28293 -6
v -1.55704 2.33092 -2.75
v -1.55704 2.33092 -6
v -1.42033 2.37592 -2.75
v -1.42033 2.37592 -6
v -1.28312 2.41951 -2.75
v -1.28312 2.41951 -6
v -1.14556 2.46188 -2.75
v -1.14556 2.46188 -6
v -1.00772 2.50323 -2.75
v -1.00772 2.50323 -6
v -0.869559 2.54359 -2.75
v -0.869559 2.54359 -6
v -0.731086 2.58289 -2.75
v -0.731086 2.58289 -6
v -0.592335 2.62117 -2.75
v -0.592335 2.62117 -6
v -0.453364 2.65865 -2.75
v -0.453364 2.65865 -6
v -0.314224 2.6955 -2.75
v -0.314224 2.6955 -6
v -0.174909 2.73168 -2.75
v -0.174909 2.73168 -6
v -0.035396 2.76709 -2.75
v -0.035396 2.76709 -6
v 0.104366 2.80149 -2.75
v 0.104366 2.80149 -6
v 0.244464 2.83452 -2.75
v 0.244464 2.83452 -6
v -4.29526 0.319188 0.5
v -4.29526 0.319188 -1.125
v -4.28804 0.247362 -1.125
v -4.28804 0.247362 0.5
v -4.27733 0.176377 -1.125
v -4.27733 0.176377 0.5
v -4.29557 0.463052 0.5
v -4.29557 0.463052 -1.125
v -4.29807 0.391189 -1.125
v -4.29807 0.391189 0.5
v -4.27142 0.604623 0.5
v -4.27142 0.604623 -1.125
v -4.28681 0.534429 -1.125
v -4.28681 0.534429 0.5
v -4.22257 0.739882 0.5
v -4.22257 0.739882 -1.125
v -4.24982 0.673261 -1.125
v -4.24982 0.673261 0.5
v -4.15315 0.865769 0.5
v -4.15315 0.865769 -1.125
v -4.19023 0.804056 -1.125
v -4.19023 0.804056 0.5
v -4.06717 0.981145 0.5
v -4.06717 0.981145 -1.125
v -4.11194 0.924763 -1.125
v -4.11194 0.924763 0.5
v -3.9692 1.0865 0.5
v -3.9692 1.0865 -1.125
v -4.01941 1.03502 -1.125
v -4.01941 1.03502 0.5
v -3.86285 1.18342 0.5
v -3.86285 1.18342 -1.125
v -3.91693 1.13585 -1.125
v -3.91693 1.13585 0.5
v -3.75082 1.27393 0.5
v -3.63559 1.35999 0.5
v -3.51778 1.44266 0.5
v -3.39729 1.5214 0.5
v -3.27413 1.59589 0.5
v -3.14874 1.66659 0.5
v -3.02165 1.73411 0.5
v -2.89312 1.79889 0.5
v -2.76697 1.85951 0.5
v -2.63258 1.92131 0.5
v -2.50089 1.9794 0.5
v -2.36289 2.03791 0.5
v -2.23505 2.08974 0.5
v -2.10065 2.14131 0.5
v -1.9653 2.19036 0.5
v -1.82942 2.23785 0.5
v -1.69858 2.28293 0.5
v -1.55704 2.33092 0.5
v -1.42033 2.37592 0.5
v -1.28312 2.41951 0.5
v -1.14556 2.46188 0.5
v -1.00772 2.50323 0.5
v -0.869559 2.54359 0.5
v -0.731086 2.58289 0.5
v -0.592335 2.62117 0.5
v -0.453364 2.65865 0.5
v -0.314224 2.6955 0.5
v -0.174909 2.73168 0.5
v -0.035396 2.76709 0.5
v 0.104366 2.80149 0.5
v 0.244464 2.83452 0.5
v -4.29526 0.319188 3.75
v -4.29526 0.319188 2.125
v -4.28804 0.247362 2.125
v -4.28804 0.247362 3.75
v -4.27733 0.176377 2.125
v -4.27733 0.176377 3.75
v -4.29557 0.463052 3.75
v -4.29557 0.463052 2.125
v -4.29807 0.391189 2.125
v -4.29807 0.391189 3.75
v -4.27142 0.604623 3.75
v -4.27142 0.604623 2.125
v -4.28681 0.534429 2.125
v -4.28681 0.534429 3.75
v -4.22257 0.739882 3.75
v -4.22257 0.739882 2.125
v -4.24982 0.673261 2.125
v -4.24982 0.673261 3.75
v -4.15315 0.865769 3.75
v -4.15315 0.865769 2.125
v -4.19023 0.804056 2.125
v -4.19023 0.804056 3.75
v -4.06717 0.981145 3.75
v -4.06717 0.981145 2.125
v -4.11194 0.924763 2.125
v -4.11194 0.924763 3.75
v -3.9692 1.0865 3.75
v -3.9692 1.0865 2.125
v -4.01941 1.03502 2.125
v -4.01941 1.03502 3.75
v -3.86285 1.18342 3.75
v -3.86285 1.18342 2.125
v -3.91693 1.13585 2.125
v -3.91693 1.13585 3.75
v -3.75082 1.27393 3.75
v -3.63559 1.35999 3.75
v -3.51778 1.44266 3.75
v -3.39729 1.5214 3.75
v -3.27413 1.59589 3.75
v -3.14874 1.66659 3.75
v -3.02165 1.73411 3.75
v -2.89312 1.79889 3.75
v -2.76697 1.85951 3.75
v -2.63258 1.92131 3.75
v -2.50089 1.9794 3.75
v -2.36289 2.03791 3.75
v -2.23505 2.08974 3.75
v -2.10065 2.14131 3.75
v -1.9653 2.19036 3.75
v -1.82942 2.23785 3.75
v -1.69858 2.28293 3.75
v -1.55704 2.33092 3.75
v -1.42033 2.37592 3.75
v -1.28312 2.41951 3.75
v -1.14556 2.46188 3.75
v -1.00772 2.50323 3.75
v -0.869559 2.54359 3.75
v -0.731086 2.58289 3.75
v -0.592335 2.62117 3.75
v -0.453364 2.65865 3.75
v -0.314224 2.6955 3.75
v -0.174909 2.73168 3.75
v -0.035396 2.76709 3.75
v 0.104366 2.80149 3.75
v 0.244464 2.83452 3.75
v -4.29526 0.319188 7
v -4.29526 0.319188 5.375
v -4.28804 0.247362 5.375
v -4.28804 0.247362 7
v -4.27733 0.176377 5.375
v -4.27733 0.176377 7
v -4.29557 0.463052 7
v -4.29557 0.463052 5.375
v -4.29807 0.391189 5.375
v -4.29807 0.391189 7
v -4.27142 0.604623 7
v -4.27142 0.604623 5.375
v -4.28681 0.534429 5.375
v -4.28681 0.534429 7
v -4.22257 0.739882 7
v -4.22257 0.739882 5.375
v -4.24982 0.673261 5.375
v -4.24982 0.673261 7
v -4.15315 0.865769 7
v -4.15315 0.865769 5.375
v -4.19023 0.804056 5.375
v -4.19023 0.804056 7
v -4.06717 0.981145 7
v -4.06717 0.981145 5.375
v -4.11194 0.924763 5.375
v -4.11194 0.924763 7
v -3.9692 1.0865 7
v -3.9692 1.0865 5.375
v -4.01941 1.03502 5.375
v -4.01941 1.03502 7
v -3.86285 1.18342 7
v -3.86285 1.18342 5.375
v -3.91693 1.13585 5.375
v -3.91693 1.13585 7
v -3.75082 1.27393 7
v -3.63559 1.35999 7
v -3.51778 1.44266 7
v -3.39729 1.5214 7
v -3.27413 1.59589 7
v -3.14874 1.66659 7
v -3.02165 1.73411 7
v -2.89312 1.79889 7
v -2.76697 1.85951 7
v -2.63258 1.92131 7
v -2.50089 1.9794 7
v -2.36289 2.03791 7
v -2.23505 2.08974 7
v -2.10065 2.14131 7
v -1.9653 2.19036 7
v -1.82942 2.23785 7
v -1.69858 2.28293 7
v -1.55704 2.33092 7
v -1.42033 2.37592 7
v -1.28312 2.41951 7
v -1.14556 2.46188 7
v -1.00772 2.50323 7
v -0.869559 2.54359 7
v -0.731086 2.58289 7
v -0.592335 2.62117 7
v -0.453364 2.65865 7
v -0.314224 2.6955 7
v -0.174909 2.73168 7
v -0.035396 2.76709 7
v 0.104366 2.80149 7
v 0.244464 2.83452 7
# </points>

# <faces count="508">
g OBJECT
f 1 2 3
f 1 3 4
f 2 5 6
f 2 6 3
f 3 6 7
f 3 7 8
f 4 3 8
f 4 8 9
f 10 11 12
f 10 12 13
f 11 14 15
f 11 15 12
f 12 15 5
f 12 5 2
f 13 12 2
f 13 2 1
f 16 17 18
f 16 18 19
f 17 20 21
f 17 21 18
f 18 21 14
f 18 14 11
f 19 18 11
f 19 11 10
f 22 23 24
f 22 24 25
f 23 26 27
f 23 27 24
f 24 27 20
f 24 20 17
f 25 24 17
f 25 17 16
f 28 29 30
f 28 30 31
f 29 32 33
f 29 33 30
f 30 33 26
f 30 26 23
f 31 30 23
f 31 23 22
f 34 35 36
f 34 36 37
f 35 38 39
f 35 39 36
f 36 39 32
f 36 32 29
f 37 36 29
f 37 29 28
f 40 41 42
f 40 42 43
f 41 44 45
f 41 45 42
f 42 45 38
f 42 38 35
f 43 42 35
f 43 35 34
f 46 47 48
f 46 48 49
f 47 50 51
f 47 51 48
f 48 51 44
f 48 44 41
f 49 48 41
f 49 41 40
f 47 46 52
f 53 50 47
f 52 53 47
f 54 55 53
f 54 53 52
f 56 57 55
f 56 55 54
f 58 59 57
f 58 57 56
f 60 61 59
f 60 59 58
f 62 63 61
f 62 61 60
f 64 65 63
f 64 63 62
f 66 67 65
f 66 65 64
f 68 69 67
f 68 67 66
f 70 71 69
f 70 69 68
f 72 73 71
f 72 71 70
f 74 75 73
f 74 73 72
f 76 77 75
f 76 75 74
f 78 79 77
f 78 77 76
f 80 81 79
f 80 79 78
f 82 83 81
f 82 81 80
f 84 85 83
f 84 83 82
f 86 87 85
f 86 85 84
f 88 89 87
f 88 87 86
f 90 91 89
f 90 89 88
f 92 93 91
f 92 91 90
f 94 95 93
f 94 93 92
f 96 97 95
f 96 95 94
f 98 99 97
f 98 97 96
f 100 101 99
f 100 99 98
f 102 103 101
f 102 101 100
f 104 105 103
f 104 103 102
f 106 107 105
f 106 105 104
f 108 109 107
f 108 107 106
f 110 111 109
f 110 109 108
f 112 113 111
f 112 111 110
f 114 115 116
f 114 116 117
f 115 1 4
f 115 4 116
f 116 4 9
f 116 9 118
f 117 116 118
f 117 118 119
f 120 121 122
f 120 122 123
f 121 10 13
f 121 13 122
f 122 13 1
f 122 1 115
f 123 122 115
f 123 115 114
f 124 125 126
f 124 126 127
f 125 16 19
f 125 19 126
f 126 19 10
f 126 10 121
f 127 126 121
f 127 121 120
f 128 129 130
f 128 130 131
f 129 22 25
f 129 25 130
f 130 25 16
f 130 16 125
f 131 130 125
f 131 125 124
f 132 133 134
f 132 134 135
f 133 28 31
f 133 31 134
f 134 31 22
f 134 22 129
f 135 134 129
f 135 129 128
f 136 137 138
f 136 138 139
f 137 34 37
f 137 37 138
f 138 37 28
f 138 28 133
f 139 138 133
f 139 133 132
f 140 141 142
f 140 142 143
f 141 40 43
f 141 43 142
f 142 43 34
f 142 34 137
f 143 142 137
f 143 137 136
f 144 145 146
f 144 146 147
f 145 46 49
f 145 49 146
f 146 49 40
f 146 40 141
f 147 146 141
f 147 141 140
f 145 144 148
f 52 46 145
f 148 52 145
f 149 54 52
f 149 52 148
f 150 56 54
f 150 54 149
f 151 58 56
f 151 56 150
f 152 60 58
f 152 58 151
f 153 62 60
f 153 60 152
f 154 64 62
f 154 62 153
f 155 66 64
f 155 64 154
f 156 68 66
f 156 66 155
f 157 70 68
f 157 68 156
f 158 72 70
f 158 70 157
f 159 74 72
f 159 72 158
f 160 76 74
f 160 74 159
f 161 78 76
f 161 76 160
f 162 80 78
f 162 78 161
f 163 82 80
f 163 80 162
f 164 84 82
f 164 82 163
f 165 86 84
f 165 84 164
f 166 88 86
f 166 86 165
f 167 90 88
f 167 88 166
f 168 92 90
f 168 90 167
f 169 94 92
f 169 92 168
f 170 96 94
f 170 94 169
f 171 98 96
f 171 96 170
f 172 100 98
f 172 98 171
f 173 102 100
f 173 100 172
f 174 104 102
f 174 102 173
f 175 106 104
f 175 104 174
f 176 108 106
f 176 106 175
f 177 110 108
f 177 108 176
f 178 112 110
f 178 110 177
f 179 180 181
f 179 181 182
f 180 114 117
f 180 117 181
f 181 117 119
f 181 119 183
f 182 181 183
f 182 183 184
f 185 186 187
f 185 187 188
f 186 120 123
f 186 123 187
f 187 123 114
f 187 114 180
f 188 187 180
f 188 180 179
f 189 190 191
f 189 191 192
f 190 124 127
f 190 127 191
f 191 127 120
f 191 120 186
f 192 191 186
f 192 186 185
f 193 194 195
f 193 195 196
f 194 128 131
f 194 131 195
f 195 131 124
f 195 124 190
f 196 195 190
f 196 190 189
f 197 198 199
f 197 199 200
f 198 132 135
f 198 135 199
f 199 135 128
f 199 128 194
f 200 199 194
f 200 194 193
f 201 202 203
f 201 203 204
f 202 136 139
f 202 139 203
f 203 139 132
f 203 132 198
f 204 203 198
f 204 198 197
f 205 206 207
f 205 207 208
f 206 140 143
f 206 143 207
f 207 143 136
f 207 136 202
f 208 207 202
f 208 202 201
f 209 210 211
f 209 211 212
f 210 144 147
f 210 147 211
f 211 147 140
f 211 140 206
f 212 211 206
f 212 206 205
f 210 209 213
f 148 144 210
f 213 148 210
f 214 149 148
f 214 148 213
f 215 150 149
f 215 149 214
f 216 151 150
f 216 150 215
f 217 152 151
f 217 151 216
f 218 153 152
f 218 152 217
f 219 154 153
f 219 153 218
f 220 155 154
f 220 154 219
f 221 156 155
f 221 155 220
f 222 157 156
f 222 156 221
f 223 158 157
f 223 157 222
f 224 159 158
f 224 158 223
f 225 160 159
f 225 159 224
f 226 161 160
f 226 160 225
f 227 162 161
f 227 161 226
f 228 163 162
f 228 162 227
f 229 164 163
f 229 163 228
f 230 165 164
f 230 164 229
f 231 166 165
f 231 165 230
f 232 167 166
f 232 166 231
f 233 168 167
f 233 167 232
f 234 169 168
f 234 168 233
f 235 170 169
f 235 169 234
f 236 171 170
f 236 170 235
f 237 172 171
f 237 171 236
f 238 173 172
f 238 172 237
f 239 174 173
f 239 173 238
f 240 175 174
f 240 174 239
f 241 176 175
f 241 175 240
f 242 177 176
f 242 176 241
f 243 178 177
f 243 177 242
f 244 245 246
f 244 246 247
f 245 179 182
f 245 182 246
f 246 182 184
f 246 184 248
f 247 246 248
f 247 248 249
f 250 251 252
f 250 252 253
f 251 185 188
f 251 188 252
f 252 188 179
f 252 179 245
f 253 252 245
f 253 245 244
f 254 255 256
f 254 256 257
f 255 189 192
f 255 192 256
f 256 192 185
f 256 185 251
f 257 256 251
f 257 251 250
f 258 259 260
f 258 260 261
f 259 193 196
f 259 196 260
f 260 196 189
f 260 189 255
f 261 260 255
f 261 255 254
f 262 263 264
f 262 264 265
f 263 197 200
f 263 200 264
f 264 200 193
f 264 193 259
f 265 264 259
f 265 259 258
f 266 267 268
f 266 268 269
f 267 201 204
f 267 204 268
f 268 204 197
f 268 197 263
f 269 268 263
f 269 263 262
f 270 271 272
f 270 272 273
f 271 205 208
f 271 208 272
f 272 208 201
f 272 201 267
f 273 272 267
f 273 267 266
f 274 275 276
f 274 276 277
f 275 209 212
f 275 212 276
f 276 212 205
f 276 205 271
f 277 276 271
f 277 271 270
f 275 274 278
f 213 209 275
f 278 213 275
f 279 214 213
f 279 213 278
f 280 215 214
f 280 214 279
f 281 216 215
f 281 215 280
f 282 217 216
f 282 216 281
f 283 218 217
f 283 217 282
f 284 219 218
f 284 218 283
f 285 220 219
f 285 219 284
f 286 221 220
f 286 220 285
f 287 222 221
f 287 221 286
f 288 223 222
f 288 222 287
f 289 224 223
f 289 223 288
f 290 225 224
f 290 224 289
f 291 226 225
f 291 225 290
f 292 227 226
f 292 226 291
f 293 228 227
f 293 227 292
f 294 229 228
f 294 228 293
f 295 230 229
f 295 229 294
f 296 231 230
f 296 230 295
f 297 232 231
f 297 231 296
f 298 233 232
f 298 232 297
f 299 234 233
f 299 233 298
f 300 235 234
f 300 234 299
f 301 236 235
f 301 235 300
f 302 237 236
f 302 236 301
f 303 238 237
f 303 237 302
f 304 239 238
f 304 238 303
f 305 240 239
f 305 239 304
f 306 241 240
f 306 240 305
f 307 242 241
f 307 241 306
f 308 243 242
f 308 242 307
# </faces>
